<?xml version="1.0" encoding="UTF-8" standalone="no"?>
<svg
   xmlns:dc="http://purl.org/dc/elements/1.1/"
   xmlns:cc="http://creativecommons.org/ns#"
   xmlns:rdf="http://www.w3.org/1999/02/22-rdf-syntax-ns#"
   xmlns:svg="http://www.w3.org/2000/svg"
   xmlns="http://www.w3.org/2000/svg"
   xmlns:sodipodi="http://sodipodi.sourceforge.net/DTD/sodipodi-0.dtd"
   xmlns:inkscape="http://www.inkscape.org/namespaces/inkscape"
   version="1.1"
   id="svg2"
   xml:space="preserve"
   width="904.53333"
   height="409.0209"
   viewBox="0 0 904.53333 409.0209"
   sodipodi:docname="06.svg"
   inkscape:version="1.0.1 (3bc2e813f5, 2020-09-07)"><metadata
     id="metadata8"><rdf:RDF><cc:Work
         rdf:about=""><dc:format>image/svg+xml</dc:format><dc:type
           rdf:resource="http://purl.org/dc/dcmitype/StillImage" /><dc:title></dc:title></cc:Work></rdf:RDF></metadata><defs
     id="defs6"><clipPath
       clipPathUnits="userSpaceOnUse"
       id="clipPath18"><path
         d="M 0,1.2207e-4 H 960 V 540.00012 H 0 Z"
         clip-rule="evenodd"
         id="path16" /></clipPath><clipPath
       clipPathUnits="userSpaceOnUse"
       id="clipPath28"><path
         d="M 1.4305e-5,0 H 960.00001 V 540 H 1.4305e-5 Z"
         clip-rule="evenodd"
         id="path26" /></clipPath><clipPath
       clipPathUnits="userSpaceOnUse"
       id="clipPath44"><path
         d="M 1.4305e-5,0 H 960.00001 V 540 H 1.4305e-5 Z"
         clip-rule="evenodd"
         id="path42" /></clipPath><clipPath
       clipPathUnits="userSpaceOnUse"
       id="clipPath60"><path
         d="M 1.4305e-5,0 H 960.00001 V 540 H 1.4305e-5 Z"
         clip-rule="evenodd"
         id="path58" /></clipPath><clipPath
       clipPathUnits="userSpaceOnUse"
       id="clipPath72"><path
         d="M 1.4305e-5,0 H 960.00001 V 540 H 1.4305e-5 Z"
         clip-rule="evenodd"
         id="path70" /></clipPath><clipPath
       clipPathUnits="userSpaceOnUse"
       id="clipPath84"><path
         d="M 1.4305e-5,0 H 960.00001 V 540 H 1.4305e-5 Z"
         clip-rule="evenodd"
         id="path82" /></clipPath><clipPath
       clipPathUnits="userSpaceOnUse"
       id="clipPath100"><path
         d="M 1.4305e-5,0 H 960.00001 V 540 H 1.4305e-5 Z"
         clip-rule="evenodd"
         id="path98" /></clipPath><clipPath
       clipPathUnits="userSpaceOnUse"
       id="clipPath116"><path
         d="M 1.4305e-5,0 H 960.00001 V 540 H 1.4305e-5 Z"
         clip-rule="evenodd"
         id="path114" /></clipPath><clipPath
       clipPathUnits="userSpaceOnUse"
       id="clipPath128"><path
         d="M 1.4305e-5,0 H 960.00001 V 540 H 1.4305e-5 Z"
         clip-rule="evenodd"
         id="path126" /></clipPath><clipPath
       clipPathUnits="userSpaceOnUse"
       id="clipPath144"><path
         d="M 1.4305e-5,0 H 960.00001 V 540 H 1.4305e-5 Z"
         clip-rule="evenodd"
         id="path142" /></clipPath><clipPath
       clipPathUnits="userSpaceOnUse"
       id="clipPath160"><path
         d="M 1.4305e-5,0 H 960.00001 V 540 H 1.4305e-5 Z"
         clip-rule="evenodd"
         id="path158" /></clipPath><clipPath
       clipPathUnits="userSpaceOnUse"
       id="clipPath172"><path
         d="M 1.4305e-5,0 H 960.00001 V 540 H 1.4305e-5 Z"
         clip-rule="evenodd"
         id="path170" /></clipPath></defs><sodipodi:namedview
     pagecolor="#ffffff"
     bordercolor="#666666"
     borderopacity="1"
     objecttolerance="10"
     gridtolerance="10"
     guidetolerance="10"
     inkscape:pageopacity="0"
     inkscape:pageshadow="2"
     inkscape:window-width="1839"
     inkscape:window-height="1051"
     id="namedview4"
     showgrid="false"
     inkscape:zoom="1.034375"
     inkscape:cx="569.86667"
     inkscape:cy="134.13332"
     inkscape:window-x="-9"
     inkscape:window-y="-9"
     inkscape:window-maximized="1"
     inkscape:current-layer="g10" /><g
     id="g10"
     inkscape:groupmode="layer"
     inkscape:label="06"
     transform="matrix(1.3333333,0,0,-1.3333333,-70.133332,494.13332)"><g
       id="g22"><g
         id="g24"
         clip-path="url(#clipPath28)"><text
           transform="matrix(1,0,0,-1,60.55,453.38)"
           style="font-variant:normal;font-weight:normal;font-size:36.025px;font-family:'Trebuchet MS';-inkscape-font-specification:TrebuchetMS;writing-mode:lr-tb;fill:#90c226;fill-opacity:1;fill-rule:nonzero;stroke:none"
           id="text32"><tspan
             x="0 19.597601 39.231224 59.29715 78.786674 89.053802 103.06753 122.59308 152.49382 171.98335 191.653"
             y="0"
             sodipodi:role="line"
             id="tspan30">Requirement</tspan></text></g></g><path
       d="M 131.8,369.8 V 296.87 L 92.6,257.6 53.4,296.87 v 72.93 l 39.2,-39.27 z"
       style="fill:#54a021;fill-opacity:1;fill-rule:evenodd;stroke:none"
       id="path34" /><path
       d="M 131.8,369.8 V 296.87 L 92.6,257.6 53.4,296.87 v 72.93 l 39.2,-39.27 z"
       style="fill:none;stroke:#54a021;stroke-width:1.6;stroke-linecap:round;stroke-linejoin:round;stroke-miterlimit:10;stroke-dasharray:none;stroke-opacity:1"
       id="path36" /><g
       id="g38"><g
         id="g40"
         clip-path="url(#clipPath44)"><text
           transform="matrix(1,0,0,-1,84.475,304.45)"
           style="font-variant:normal;font-weight:normal;font-size:29.025px;font-family:Arial;-inkscape-font-specification:ArialMT;writing-mode:lr-tb;fill:#ffffff;fill-opacity:1;fill-rule:nonzero;stroke:none"
           id="text48"><tspan
             x="0"
             y="0"
             id="tspan46">1</tspan></text></g></g><path
       d="m 730.2,357.63 v -48.66 c 0,-6.72 -5.44,-12.17 -12.14,-12.17 H 131.8 v 0 73 0 h 586.26 c 6.7,0 12.14,-5.45 12.14,-12.17 z"
       style="fill:#ffffff;fill-opacity:0.90196;fill-rule:evenodd;stroke:none"
       id="path50" /><path
       d="m 730.2,357.63 v -48.66 c 0,-6.72 -5.44,-12.17 -12.14,-12.17 H 131.8 v 0 73 0 h 586.26 c 6.7,0 12.14,-5.45 12.14,-12.17 z"
       style="fill:none;stroke:#54a021;stroke-width:1.6;stroke-linecap:round;stroke-linejoin:round;stroke-miterlimit:10;stroke-dasharray:none;stroke-opacity:1"
       id="path52" /><g
       id="g54"><g
         id="g56"
         clip-path="url(#clipPath60)"><text
           transform="matrix(1,0,0,-1,148.65,323.8)"
           style="font-variant:normal;font-weight:normal;font-size:30px;font-family:Arial;-inkscape-font-specification:ArialMT;writing-mode:lr-tb;fill:#000000;fill-opacity:1;fill-rule:nonzero;stroke:none"
           id="text64"><tspan
             x="0"
             y="0"
             id="tspan62">•</tspan></text></g></g><g
       id="g66"><g
         id="g68"
         clip-path="url(#clipPath72)"><text
           transform="matrix(1,0,0,-1,171.25,323.8)"
           style="font-variant:normal;font-weight:normal;font-size:30px;font-family:Arial;-inkscape-font-specification:ArialMT;writing-mode:lr-tb;fill:#000000;fill-opacity:1;fill-rule:nonzero;stroke:none"
           id="text76"><tspan
             x="0 8.3400002 25.02 40.02 48.48 65.160004 71.730003 78.389999"
             y="0"
             sodipodi:role="line"
             id="tspan74">Install </tspan></text></g></g><g
       id="g78"><g
         id="g80"
         clip-path="url(#clipPath84)"><text
           transform="matrix(1,0,0,-1,257.88,323.8)"
           style="font-variant:normal;font-weight:normal;font-size:30px;font-family:Arial;-inkscape-font-specification:ArialMT;writing-mode:lr-tb;fill:#000000;fill-opacity:1;fill-rule:nonzero;stroke:none"
           id="text88"><tspan
             x="0 16.68 33.209999 43.200001 59.880001 76.410004 93.089996 109.62 118.2 136.53 153.21001 159.87"
             y="0"
             sodipodi:role="line"
             id="tspan86">Laragon Full</tspan></text></g></g><path
       d="M 131.8,273 V 200.2 L 92.6,161 53.4,200.2 V 273 l 39.2,-39.2 z"
       style="fill:#e6b91e;fill-opacity:1;fill-rule:evenodd;stroke:none"
       id="path90" /><path
       d="M 131.8,273 V 200.2 L 92.6,161 53.4,200.2 V 273 l 39.2,-39.2 z"
       style="fill:none;stroke:#e6b91e;stroke-width:1.6;stroke-linecap:round;stroke-linejoin:round;stroke-miterlimit:10;stroke-dasharray:none;stroke-opacity:1"
       id="path92" /><g
       id="g94"><g
         id="g96"
         clip-path="url(#clipPath100)"><text
           transform="matrix(1,0,0,-1,84.475,207.8)"
           style="font-variant:normal;font-weight:normal;font-size:29px;font-family:Arial;-inkscape-font-specification:ArialMT;writing-mode:lr-tb;fill:#ffffff;fill-opacity:1;fill-rule:nonzero;stroke:none"
           id="text104"><tspan
             x="0"
             y="0"
             id="tspan102">3</tspan></text></g></g><path
       d="m 730.2,260.87 v -48.54 c 0,-6.7 -5.44,-12.13 -12.14,-12.13 H 131.8 v 0 72.8 0 h 586.26 c 6.7,0 12.14,-5.43 12.14,-12.13 z"
       style="fill:#ffffff;fill-opacity:0.90196;fill-rule:evenodd;stroke:none"
       id="path106" /><path
       d="m 730.2,260.87 v -48.54 c 0,-6.7 -5.44,-12.13 -12.14,-12.13 H 131.8 v 0 72.8 0 h 586.26 c 6.7,0 12.14,-5.43 12.14,-12.13 z"
       style="fill:none;stroke:#e6b91e;stroke-width:1.6;stroke-linecap:round;stroke-linejoin:round;stroke-miterlimit:10;stroke-dasharray:none;stroke-opacity:1"
       id="path108" /><g
       id="g110"><g
         id="g112"
         clip-path="url(#clipPath116)"><text
           transform="matrix(1,0,0,-1,148.65,227.15)"
           style="font-variant:normal;font-weight:normal;font-size:30px;font-family:Arial;-inkscape-font-specification:ArialMT;writing-mode:lr-tb;fill:#000000;fill-opacity:1;fill-rule:nonzero;stroke:none"
           id="text120"><tspan
             x="0"
             y="0"
             id="tspan118">•</tspan></text></g></g><g
       id="g122"><g
         id="g124"
         clip-path="url(#clipPath128)"><text
           transform="matrix(1,0,0,-1,171.25,227.15)"
           style="font-variant:normal;font-weight:normal;font-size:30px;font-family:Arial;-inkscape-font-specification:ArialMT;writing-mode:lr-tb;fill:#000000;fill-opacity:1;fill-rule:nonzero;stroke:none"
           id="text132"><tspan
             x="0 8.3400002 25.02 40.02 48.48 65.160004 71.730003 78.389999 86.190002 101.4 118.08 128.07001 136.41 153.09 159.75 174.75 191.42999 199.77 223.2 231.53999"
             y="0"
             sodipodi:role="line"
             id="tspan130">Install Tortoise GIT</tspan></text></g></g><path
       d="M 131.8,176.4 V 103.6 L 92.6,64.4 53.4,103.6 v 72.8 l 39.2,-39.2 z"
       style="fill:#e76618;fill-opacity:1;fill-rule:evenodd;stroke:none"
       id="path134" /><path
       d="M 131.8,176.4 V 103.6 L 92.6,64.4 53.4,103.6 v 72.8 l 39.2,-39.2 z"
       style="fill:none;stroke:#e76618;stroke-width:1.6;stroke-linecap:round;stroke-linejoin:round;stroke-miterlimit:10;stroke-dasharray:none;stroke-opacity:1"
       id="path136" /><g
       id="g138"><g
         id="g140"
         clip-path="url(#clipPath144)"><text
           transform="matrix(1,0,0,-1,84.475,111.15)"
           style="font-variant:normal;font-weight:normal;font-size:29px;font-family:Arial;-inkscape-font-specification:ArialMT;writing-mode:lr-tb;fill:#ffffff;fill-opacity:1;fill-rule:nonzero;stroke:none"
           id="text148"><tspan
             x="0"
             y="0"
             id="tspan146">4</tspan></text></g></g><path
       d="m 730.2,164.27 v -48.54 c 0,-6.7 -5.44,-12.13 -12.14,-12.13 H 131.8 v 0 72.8 0 h 586.26 c 6.7,0 12.14,-5.43 12.14,-12.13 z"
       style="fill:#ffffff;fill-opacity:0.90196;fill-rule:evenodd;stroke:none"
       id="path150" /><path
       d="m 730.2,164.27 v -48.54 c 0,-6.7 -5.44,-12.13 -12.14,-12.13 H 131.8 v 0 72.8 0 h 586.26 c 6.7,0 12.14,-5.43 12.14,-12.13 z"
       style="fill:none;stroke:#e76618;stroke-width:1.6;stroke-linecap:round;stroke-linejoin:round;stroke-miterlimit:10;stroke-dasharray:none;stroke-opacity:1"
       id="path152" /><g
       id="g154"><g
         id="g156"
         clip-path="url(#clipPath160)"><text
           transform="matrix(1,0,0,-1,148.65,130.52)"
           style="font-variant:normal;font-weight:normal;font-size:30.025px;font-family:Arial;-inkscape-font-specification:ArialMT;writing-mode:lr-tb;fill:#000000;fill-opacity:1;fill-rule:nonzero;stroke:none"
           id="text164"><tspan
             x="0"
             y="0"
             id="tspan162">•</tspan></text></g></g><g
       id="g166"><g
         id="g168"
         clip-path="url(#clipPath172)"><text
           transform="matrix(1,0,0,-1,171.25,130.52)"
           style="font-variant:normal;font-weight:normal;font-size:30.025px;font-family:Arial;-inkscape-font-specification:ArialMT;writing-mode:lr-tb;fill:#000000;fill-opacity:1;fill-rule:nonzero;stroke:none"
           id="text176"><tspan
             x="0 21.678049 38.25185 54.945751 61.491199 76.5037 84.910698 101.6046 111.60293 119.94987 143.36937 151.71632 169.8214 176.45692 196.4836 211.49609 226.50861 243.2025 259.77631 276.47021"
             y="0"
             sodipodi:role="line"
             id="tspan174">Register GIT Account</tspan></text></g></g></g></svg>
