<?xml version="1.0" encoding="UTF-8" standalone="no"?>
<svg
   xmlns:dc="http://purl.org/dc/elements/1.1/"
   xmlns:cc="http://creativecommons.org/ns#"
   xmlns:rdf="http://www.w3.org/1999/02/22-rdf-syntax-ns#"
   xmlns:svg="http://www.w3.org/2000/svg"
   xmlns="http://www.w3.org/2000/svg"
   xmlns:sodipodi="http://sodipodi.sourceforge.net/DTD/sodipodi-0.dtd"
   xmlns:inkscape="http://www.inkscape.org/namespaces/inkscape"
   version="1.1"
   id="svg2"
   xml:space="preserve"
   width="1178.6666"
   height="409.55096"
   viewBox="0 0 1178.6666 409.55096"
   sodipodi:docname="15.svg"
   inkscape:version="1.0.1 (3bc2e813f5, 2020-09-07)"><metadata
     id="metadata8"><rdf:RDF><cc:Work
         rdf:about=""><dc:format>image/svg+xml</dc:format><dc:type
           rdf:resource="http://purl.org/dc/dcmitype/StillImage" /><dc:title></dc:title></cc:Work></rdf:RDF></metadata><defs
     id="defs6"><clipPath
       clipPathUnits="userSpaceOnUse"
       id="clipPath18"><path
         d="M 0,1.2207e-4 H 960 V 540.00012 H 0 Z"
         clip-rule="evenodd"
         id="path16" /></clipPath><clipPath
       clipPathUnits="userSpaceOnUse"
       id="clipPath28"><path
         d="M -3.815e-6,540 H 960 V 0 H -3.815e-6"
         clip-rule="evenodd"
         id="path26" /></clipPath><clipPath
       clipPathUnits="userSpaceOnUse"
       id="clipPath38"><path
         d="M -3.815e-6,540 H 960 V 0 H -3.815e-6"
         clip-rule="evenodd"
         id="path36" /></clipPath><clipPath
       clipPathUnits="userSpaceOnUse"
       id="clipPath48"><path
         d="M 1.4305e-5,0 H 960.00001 V 540 H 1.4305e-5 Z"
         clip-rule="evenodd"
         id="path46" /></clipPath><clipPath
       clipPathUnits="userSpaceOnUse"
       id="clipPath60"><path
         d="M 1.4305e-5,0 H 960.00001 V 540 H 1.4305e-5 Z"
         clip-rule="evenodd"
         id="path58" /></clipPath><clipPath
       clipPathUnits="userSpaceOnUse"
       id="clipPath72"><path
         d="M 1.4305e-5,0 H 960.00001 V 540 H 1.4305e-5 Z"
         clip-rule="evenodd"
         id="path70" /></clipPath><clipPath
       clipPathUnits="userSpaceOnUse"
       id="clipPath84"><path
         d="M 1.4305e-5,0 H 960.00001 V 540 H 1.4305e-5 Z"
         clip-rule="evenodd"
         id="path82" /></clipPath><clipPath
       clipPathUnits="userSpaceOnUse"
       id="clipPath96"><path
         d="M -3.0518e-5,540 H 960 V 0 H -6.1035e-5"
         clip-rule="evenodd"
         id="path94" /></clipPath><clipPath
       clipPathUnits="userSpaceOnUse"
       id="clipPath106"><path
         d="M -3.0518e-5,540 H 960 V 0 H -6.1035e-5"
         clip-rule="evenodd"
         id="path104" /></clipPath><clipPath
       clipPathUnits="userSpaceOnUse"
       id="clipPath116"><path
         d="M 1.4305e-5,0 H 960.00001 V 540 H 1.4305e-5 Z"
         clip-rule="evenodd"
         id="path114" /></clipPath><clipPath
       clipPathUnits="userSpaceOnUse"
       id="clipPath128"><path
         d="M 1.4305e-5,0 H 960.00001 V 540 H 1.4305e-5 Z"
         clip-rule="evenodd"
         id="path126" /></clipPath><clipPath
       clipPathUnits="userSpaceOnUse"
       id="clipPath140"><path
         d="M 1.4305e-5,0 H 960.00001 V 540 H 1.4305e-5 Z"
         clip-rule="evenodd"
         id="path138" /></clipPath><clipPath
       clipPathUnits="userSpaceOnUse"
       id="clipPath152"><path
         d="M 1.4305e-5,0 H 960.00001 V 540 H 1.4305e-5 Z"
         clip-rule="evenodd"
         id="path150" /></clipPath><clipPath
       clipPathUnits="userSpaceOnUse"
       id="clipPath164"><path
         d="M 1.4305e-5,0 H 960.00001 V 540 H 1.4305e-5 Z"
         clip-rule="evenodd"
         id="path162" /></clipPath><clipPath
       clipPathUnits="userSpaceOnUse"
       id="clipPath176"><path
         d="M 1.4305e-5,0 H 960.00001 V 540 H 1.4305e-5 Z"
         clip-rule="evenodd"
         id="path174" /></clipPath><clipPath
       clipPathUnits="userSpaceOnUse"
       id="clipPath188"><path
         d="M 1.4305e-5,0 H 960.00001 V 540 H 1.4305e-5 Z"
         clip-rule="evenodd"
         id="path186" /></clipPath><clipPath
       clipPathUnits="userSpaceOnUse"
       id="clipPath200"><path
         d="M 1.4305e-5,0 H 960.00001 V 540 H 1.4305e-5 Z"
         clip-rule="evenodd"
         id="path198" /></clipPath><clipPath
       clipPathUnits="userSpaceOnUse"
       id="clipPath212"><path
         d="M 1.4305e-5,0 H 960.00001 V 540 H 1.4305e-5 Z"
         clip-rule="evenodd"
         id="path210" /></clipPath><clipPath
       clipPathUnits="userSpaceOnUse"
       id="clipPath224"><path
         d="M 1.4305e-5,0 H 960.00001 V 540 H 1.4305e-5 Z"
         clip-rule="evenodd"
         id="path222" /></clipPath><clipPath
       clipPathUnits="userSpaceOnUse"
       id="clipPath236"><path
         d="M 1.4305e-5,0 H 960.00001 V 540 H 1.4305e-5 Z"
         clip-rule="evenodd"
         id="path234" /></clipPath><clipPath
       clipPathUnits="userSpaceOnUse"
       id="clipPath248"><path
         d="M 1.4305e-5,0 H 960.00001 V 540 H 1.4305e-5 Z"
         clip-rule="evenodd"
         id="path246" /></clipPath><clipPath
       clipPathUnits="userSpaceOnUse"
       id="clipPath260"><path
         d="M 1.4305e-5,0 H 960.00001 V 540 H 1.4305e-5 Z"
         clip-rule="evenodd"
         id="path258" /></clipPath><clipPath
       clipPathUnits="userSpaceOnUse"
       id="clipPath272"><path
         d="M 1.4305e-5,0 H 960.00001 V 540 H 1.4305e-5 Z"
         clip-rule="evenodd"
         id="path270" /></clipPath><clipPath
       clipPathUnits="userSpaceOnUse"
       id="clipPath284"><path
         d="M 1.4305e-5,0 H 960.00001 V 540 H 1.4305e-5 Z"
         clip-rule="evenodd"
         id="path282" /></clipPath><clipPath
       clipPathUnits="userSpaceOnUse"
       id="clipPath296"><path
         d="M -6.1035e-5,540 H 960 V 0 H -6.1035e-5"
         clip-rule="evenodd"
         id="path294" /></clipPath><clipPath
       clipPathUnits="userSpaceOnUse"
       id="clipPath306"><path
         d="M -6.1035e-5,540 H 960 V 0 H -6.1035e-5"
         clip-rule="evenodd"
         id="path304" /></clipPath><clipPath
       clipPathUnits="userSpaceOnUse"
       id="clipPath316"><path
         d="M 1.4305e-5,0 H 960.00001 V 540 H 1.4305e-5 Z"
         clip-rule="evenodd"
         id="path314" /></clipPath><clipPath
       clipPathUnits="userSpaceOnUse"
       id="clipPath328"><path
         d="M 1.4305e-5,0 H 960.00001 V 540 H 1.4305e-5 Z"
         clip-rule="evenodd"
         id="path326" /></clipPath><clipPath
       clipPathUnits="userSpaceOnUse"
       id="clipPath340"><path
         d="M 1.4305e-5,0 H 960.00001 V 540 H 1.4305e-5 Z"
         clip-rule="evenodd"
         id="path338" /></clipPath><clipPath
       clipPathUnits="userSpaceOnUse"
       id="clipPath352"><path
         d="M 1.4305e-5,0 H 960.00001 V 540 H 1.4305e-5 Z"
         clip-rule="evenodd"
         id="path350" /></clipPath><clipPath
       clipPathUnits="userSpaceOnUse"
       id="clipPath364"><path
         d="M 1.4305e-5,0 H 960.00001 V 540 H 1.4305e-5 Z"
         clip-rule="evenodd"
         id="path362" /></clipPath><clipPath
       clipPathUnits="userSpaceOnUse"
       id="clipPath376"><path
         d="M 1.4305e-5,0 H 960.00001 V 540 H 1.4305e-5 Z"
         clip-rule="evenodd"
         id="path374" /></clipPath><clipPath
       clipPathUnits="userSpaceOnUse"
       id="clipPath388"><path
         d="M 1.4305e-5,0 H 960.00001 V 540 H 1.4305e-5 Z"
         clip-rule="evenodd"
         id="path386" /></clipPath></defs><sodipodi:namedview
     pagecolor="#ffffff"
     bordercolor="#666666"
     borderopacity="1"
     objecttolerance="10"
     gridtolerance="10"
     guidetolerance="10"
     inkscape:pageopacity="0"
     inkscape:pageshadow="2"
     inkscape:window-width="1839"
     inkscape:window-height="1051"
     id="namedview4"
     showgrid="false"
     inkscape:zoom="1.034375"
     inkscape:cx="569.86667"
     inkscape:cy="134.10882"
     inkscape:window-x="-9"
     inkscape:window-y="-9"
     inkscape:window-maximized="1"
     inkscape:current-layer="g10" /><g
     id="g10"
     inkscape:groupmode="layer"
     inkscape:label="15"
     transform="matrix(1.3333333,0,0,-1.3333333,-70.133332,494.10882)"><g
       id="g22"><g
         id="g24"
         clip-path="url(#clipPath28)"><path
           d="M 53.4,64.2 V 369.8 L 333.6,308.68 V 125.32 Z"
           style="fill:#54a021;fill-opacity:1;fill-rule:evenodd;stroke:none"
           id="path30" /></g></g><g
       id="g32"><g
         id="g34"
         clip-path="url(#clipPath38)"><path
           d="M 53.4,64.2 V 369.8 L 333.6,308.68 V 125.32 Z"
           style="fill:none;stroke:#ffffff;stroke-width:1.6;stroke-linecap:round;stroke-linejoin:round;stroke-miterlimit:10;stroke-dasharray:none;stroke-opacity:1"
           id="path40" /></g></g><g
       id="g42"><g
         id="g44"
         clip-path="url(#clipPath48)"><text
           transform="matrix(1,0,0,-1,89.5,244.27)"
           style="font-variant:normal;font-weight:normal;font-size:22px;font-family:Arial;-inkscape-font-specification:ArialMT;writing-mode:lr-tb;fill:#ffffff;fill-opacity:1;fill-rule:nonzero;stroke:none"
           id="text52"><tspan
             x="0 14.608 19.403999 24.200001 30.58 42.812 55.043999 62.369999 74.601997 85.601997 97.834 102.586 108.768 116.138 128.37 140.60201 146.718 158.95 169.95 175.93401 188.166 195.492 207.724"
             y="0"
             sodipodi:role="line"
             id="tspan50">All Laravel routes are </tspan></text></g></g><g
       id="g54"><g
         id="g56"
         clip-path="url(#clipPath60)"><text
           transform="matrix(1,0,0,-1,67.5,221.67)"
           style="font-variant:normal;font-weight:normal;font-size:22px;font-family:Arial;-inkscape-font-specification:ArialMT;writing-mode:lr-tb;fill:#ffffff;fill-opacity:1;fill-rule:nonzero;stroke:none"
           id="text64"><tspan
             x="0 12.232 24.464001 30.58 35.464001 47.608002 59.84 72.071999 78.188004 83.071999 95.216003 101.596 112.2 124.432 136.664 143.99001 150.37 157.74001 169.972 182.20399 188.32001 200.552 206.536 212.718 217.51401 222.31 234.54201 245.54201 251.658"
             y="0"
             sodipodi:role="line"
             id="tspan62">defined in your route files, </tspan></text></g></g><g
       id="g66"><g
         id="g68"
         clip-path="url(#clipPath72)"><text
           transform="matrix(1,0,0,-1,77.9,198.88)"
           style="font-variant:normal;font-weight:normal;font-size:22.025px;font-family:Arial;-inkscape-font-specification:ArialMT;writing-mode:lr-tb;fill:#ffffff;fill-opacity:1;fill-rule:nonzero;stroke:none"
           id="text76"><tspan
             x="0 15.395475 27.641375 32.398773 43.411274 55.657173 62.374802 74.620697 81.955025 94.200928 100.1697 104.97115 117.21705 128.22955 140.36533 146.53232 158.77823 170.93602 177.32327 182.12473 194.37062 200.49358 206.70462 218.95053 231.10832"
             y="0"
             sodipodi:role="line"
             id="tspan74">which are located in the </tspan></text></g></g><g
       id="g78"><g
         id="g80"
         clip-path="url(#clipPath84)"><text
           transform="matrix(1,0,0,-1,117.9,176.05)"
           style="font-variant:normal;font-weight:normal;font-size:22px;font-family:Arial;-inkscape-font-specification:ArialMT;writing-mode:lr-tb;fill:#ffffff;fill-opacity:1;fill-rule:nonzero;stroke:none"
           id="text88"><tspan
             x="0 7.3699999 19.601999 31.834 37.950001 50.181999 61.181999 67.166 79.398003 84.171997 91.542 103.774 114.774 120.89 133.12199 140.51401"
             y="0"
             sodipodi:role="line"
             id="tspan86">routes directory</tspan></text></g></g><g
       id="g90"><g
         id="g92"
         clip-path="url(#clipPath96)"><path
           d="M 354.6,64.2 V 369.8 L 634.8,308.68 V 125.32 Z"
           style="fill:#e6b91e;fill-opacity:1;fill-rule:evenodd;stroke:none"
           id="path98" /></g></g><g
       id="g100"><g
         id="g102"
         clip-path="url(#clipPath106)"><path
           d="M 354.6,64.2 V 369.8 L 634.8,308.68 V 125.32 Z"
           style="fill:none;stroke:#ffffff;stroke-width:1.6;stroke-linecap:round;stroke-linejoin:round;stroke-miterlimit:10;stroke-dasharray:none;stroke-opacity:1"
           id="path108" /></g></g><g
       id="g110"><g
         id="g112"
         clip-path="url(#clipPath116)"><text
           transform="matrix(1,0,0,-1,365.7,290.45)"
           style="font-variant:normal;font-weight:normal;font-size:22px;font-family:Arial;-inkscape-font-specification:ArialMT;writing-mode:lr-tb;fill:#000000;fill-opacity:1;fill-rule:nonzero;stroke:none"
           id="text120"><tspan
             x="0 14.19 25.190001 37.422001 42.195999 46.992001 59.223999 71.456001 76.185997 88.417999 94.973999 110.77 123.002 135.23399 141.35001 153.582 160.908"
             y="0"
             sodipodi:role="line"
             id="tspan118">Available Router </tspan></text></g></g><g
       id="g122"><g
         id="g124"
         clip-path="url(#clipPath128)"><text
           transform="matrix(1,0,0,-1,365.7,267.85)"
           style="font-variant:normal;font-weight:normal;font-size:22px;font-family:Arial;-inkscape-font-specification:ArialMT;writing-mode:lr-tb;fill:#000000;fill-opacity:1;fill-rule:nonzero;stroke:none"
           id="text132"><tspan
             x="0 18.194 30.426001 36.542 48.773998 61.006001 73.237999 84.237999"
             y="0"
             sodipodi:role="line"
             id="tspan130">Methods:</tspan></text></g></g><g
       id="g134"><g
         id="g136"
         clip-path="url(#clipPath140)"><text
           transform="matrix(1,0,0,-1,456.13,267.85)"
           style="font-variant:normal;font-weight:normal;font-size:22px;font-family:Arial;-inkscape-font-specification:ArialMT;writing-mode:lr-tb;fill:#000000;fill-opacity:1;fill-rule:nonzero;stroke:none"
           id="text144"><tspan
             x="0"
             y="0"
             id="tspan142">-</tspan></text></g></g><g
       id="g146"><g
         id="g148"
         clip-path="url(#clipPath152)"><text
           transform="matrix(1,0,0,-1,365.7,240.25)"
           style="font-variant:normal;font-weight:normal;font-size:17.025px;font-family:Arial;-inkscape-font-specification:ArialMT;writing-mode:lr-tb;fill:#000000;fill-opacity:1;fill-rule:nonzero;stroke:none"
           id="text156"><tspan
             x="0"
             y="0"
             id="tspan154">•</tspan></text></g></g><g
       id="g158"><g
         id="g160"
         clip-path="url(#clipPath164)"><text
           transform="matrix(1,0,0,-1,379.3,240.25)"
           style="font-variant:normal;font-weight:normal;font-size:17.025px;font-family:Arial;-inkscape-font-specification:ArialMT;writing-mode:lr-tb;fill:#000000;fill-opacity:1;fill-rule:nonzero;stroke:none"
           id="text168"><tspan
             x="0 12.206925 21.604725 31.002525 35.786549 45.184349 49.968376 54.752399 64.1502 73.547997 78.332024 83.93325 93.331047 102.72885 108.33008 112.10963 116.91068 126.30847 134.88907 144.28688 148.06642 151.84598 161.31187 170.69266 179.27325 188.05815 193.65938"
             y="0"
             sodipodi:role="line"
             id="tspan166">Route::get($uri,$callback);</tspan></text></g></g><g
       id="g170"><g
         id="g172"
         clip-path="url(#clipPath176)"><text
           transform="matrix(1,0,0,-1,365.7,219.63)"
           style="font-variant:normal;font-weight:normal;font-size:17px;font-family:Arial;-inkscape-font-specification:ArialMT;writing-mode:lr-tb;fill:#000000;fill-opacity:1;fill-rule:nonzero;stroke:none"
           id="text180"><tspan
             x="0"
             y="0"
             id="tspan178">•</tspan></text></g></g><g
       id="g182"><g
         id="g184"
         clip-path="url(#clipPath188)"><text
           transform="matrix(1,0,0,-1,379.3,219.63)"
           style="font-variant:normal;font-weight:normal;font-size:17px;font-family:Arial;-inkscape-font-specification:ArialMT;writing-mode:lr-tb;fill:#000000;fill-opacity:1;fill-rule:nonzero;stroke:none"
           id="text192"><tspan
             x="0 12.206 21.607 31.007999 35.785 45.186001 49.963001 54.740002 64.140999 73.542 82.126999 86.903999 92.497002 101.898 111.299 116.892 120.666 125.477 130.254 139.655 148.24001 157.64101 161.41499 165.22301 174.62399 184.02499 192.61 201.399 206.992"
             y="0"
             sodipodi:role="line"
             id="tspan190">Route::post($uri, $callback);</tspan></text></g></g><g
       id="g194"><g
         id="g196"
         clip-path="url(#clipPath200)"><text
           transform="matrix(1,0,0,-1,365.7,199.23)"
           style="font-variant:normal;font-weight:normal;font-size:17px;font-family:Arial;-inkscape-font-specification:ArialMT;writing-mode:lr-tb;fill:#000000;fill-opacity:1;fill-rule:nonzero;stroke:none"
           id="text204"><tspan
             x="0"
             y="0"
             id="tspan202">•</tspan></text></g></g><g
       id="g206"><g
         id="g208"
         clip-path="url(#clipPath212)"><text
           transform="matrix(1,0,0,-1,379.3,199.23)"
           style="font-variant:normal;font-weight:normal;font-size:17px;font-family:Arial;-inkscape-font-specification:ArialMT;writing-mode:lr-tb;fill:#000000;fill-opacity:1;fill-rule:nonzero;stroke:none"
           id="text216"><tspan
             x="0 12.206 21.607 31.007999 35.785 45.186001 49.963001 54.740002 64.140999 73.542 78.319 83.912003 93.313004 102.714 108.307 112.081 116.892 121.873 131.274 139.85899 149.25999 153.034 156.842 166.243 175.644 184.229 193.01801 198.61099"
             y="0"
             sodipodi:role="line"
             id="tspan214">Route::put($uri, $callback);</tspan></text></g></g><g
       id="g218"><g
         id="g220"
         clip-path="url(#clipPath224)"><text
           transform="matrix(1,0,0,-1,365.7,178.63)"
           style="font-variant:normal;font-weight:normal;font-size:17.025px;font-family:Arial;-inkscape-font-specification:ArialMT;writing-mode:lr-tb;fill:#000000;fill-opacity:1;fill-rule:nonzero;stroke:none"
           id="text228"><tspan
             x="0"
             y="0"
             id="tspan226">•</tspan></text></g></g><g
       id="g230"><g
         id="g232"
         clip-path="url(#clipPath236)"><text
           transform="matrix(1,0,0,-1,379.3,178.63)"
           style="font-variant:normal;font-weight:normal;font-size:17.025px;font-family:Arial;-inkscape-font-specification:ArialMT;writing-mode:lr-tb;fill:#000000;fill-opacity:1;fill-rule:nonzero;stroke:none"
           id="text240"><tspan
             x="0 12.206925 21.604725 31.002525 35.786549 45.184349 49.968376 54.752399 64.1502 73.547997 78.332024 86.912628 96.310425 101.91165 111.30945 120.70725 126.30847 130.08803 134.88907 139.6731 149.07091 157.6515 167.0493 170.82886 174.6084 184.0743 193.45508 202.03568 210.82057 216.4218"
             y="0"
             sodipodi:role="line"
             id="tspan238">Route::patch($uri, $callback);</tspan></text></g></g><g
       id="g242"><g
         id="g244"
         clip-path="url(#clipPath248)"><text
           transform="matrix(1,0,0,-1,365.7,158.2)"
           style="font-variant:normal;font-weight:normal;font-size:17px;font-family:Arial;-inkscape-font-specification:ArialMT;writing-mode:lr-tb;fill:#000000;fill-opacity:1;fill-rule:nonzero;stroke:none"
           id="text252"><tspan
             x="0"
             y="0"
             id="tspan250">•</tspan></text></g></g><g
       id="g254"><g
         id="g256"
         clip-path="url(#clipPath260)"><text
           transform="matrix(1,0,0,-1,379.3,158.2)"
           style="font-variant:normal;font-weight:normal;font-size:17px;font-family:Arial;-inkscape-font-specification:ArialMT;writing-mode:lr-tb;fill:#000000;fill-opacity:1;fill-rule:nonzero;stroke:none"
           id="text264"><tspan
             x="0 12.206 21.607 31.007999 35.785 45.186001 49.963001 54.740002 64.140999 73.542 77.316002 86.767998 91.494003 100.946 106.539 115.94 125.341 130.93401 134.70799 139.519 144.5 153.901 162.48599 171.88699 175.661 179.46899 188.87 198.271 206.856 215.645 221.23801"
             y="0"
             sodipodi:role="line"
             id="tspan262">Route::delete($uri, $callback);</tspan></text></g></g><g
       id="g266"><g
         id="g268"
         clip-path="url(#clipPath272)"><text
           transform="matrix(1,0,0,-1,365.7,137.6)"
           style="font-variant:normal;font-weight:normal;font-size:17px;font-family:Arial;-inkscape-font-specification:ArialMT;writing-mode:lr-tb;fill:#000000;fill-opacity:1;fill-rule:nonzero;stroke:none"
           id="text276"><tspan
             x="0"
             y="0"
             id="tspan274">•</tspan></text></g></g><g
       id="g278"><g
         id="g280"
         clip-path="url(#clipPath284)"><text
           transform="matrix(1,0,0,-1,379.3,137.6)"
           style="font-variant:normal;font-weight:normal;font-size:17px;font-family:Arial;-inkscape-font-specification:ArialMT;writing-mode:lr-tb;fill:#000000;fill-opacity:1;fill-rule:nonzero;stroke:none"
           id="text288"><tspan
             x="0 12.206 21.607 31.007999 35.785 45.186001 49.963001 54.740002 64.140999 73.542 78.319 82.093002 91.544998 100.912 109.497 115.09 124.491 133.892 139.485 143.259 148.07001 152.847 162.248 170.83299 180.23399 184.008 187.81599 197.217 206.618 215.203 223.992 229.58501"
             y="0"
             sodipodi:role="line"
             id="tspan286">Route::options($uri, $callback);</tspan></text></g></g><g
       id="g290"><g
         id="g292"
         clip-path="url(#clipPath296)"><path
           d="m 655.8,64.2 v 305.6 l 280,-61.12 V 125.32 Z"
           style="fill:#e76618;fill-opacity:1;fill-rule:evenodd;stroke:none"
           id="path298" /></g></g><g
       id="g300"><g
         id="g302"
         clip-path="url(#clipPath306)"><path
           d="m 655.8,64.2 v 305.6 l 280,-61.12 V 125.32 Z"
           style="fill:none;stroke:#ffffff;stroke-width:1.6;stroke-linecap:round;stroke-linejoin:round;stroke-miterlimit:10;stroke-dasharray:none;stroke-opacity:1"
           id="path308" /></g></g><g
       id="g310"><g
         id="g312"
         clip-path="url(#clipPath316)"><text
           transform="matrix(1,0,0,-1,666.9,290.45)"
           style="font-variant:normal;font-weight:normal;font-size:22px;font-family:Arial;-inkscape-font-specification:ArialMT;writing-mode:lr-tb;fill:#ffffff;fill-opacity:1;fill-rule:nonzero;stroke:none"
           id="text320"><tspan
             x="0 15.796 30.403999 46.200001 59.641998 65.977997 80.585999 87.956001 100.188 106.304 118.536 129.536 135.74001 140.536 152.76801"
             y="0"
             sodipodi:role="line"
             id="tspan318">CSRF Protection</tspan></text></g></g><g
       id="g322"><g
         id="g324"
         clip-path="url(#clipPath328)"><text
           transform="matrix(1,0,0,-1,666.9,263.05)"
           style="font-variant:normal;font-weight:normal;font-size:17px;font-family:Arial;-inkscape-font-specification:ArialMT;writing-mode:lr-tb;fill:#ffffff;fill-opacity:1;fill-rule:nonzero;stroke:none"
           id="text332"><tspan
             x="0"
             y="0"
             id="tspan330">•</tspan></text></g></g><g
       id="g334"><g
         id="g336"
         clip-path="url(#clipPath340)"><text
           transform="matrix(1,0,0,-1,680.5,263.05)"
           style="font-variant:normal;font-weight:normal;font-size:17px;font-family:Arial;-inkscape-font-specification:ArialMT;writing-mode:lr-tb;fill:#ffffff;fill-opacity:1;fill-rule:nonzero;stroke:none"
           id="text344"><tspan
             x="0 11.39 20.791 28.985001 33.966 46.172001 56.558998 70.753998 79.559998 84.336998 89.113998 98.514999 104.108 118.49 127.075 131.478 140.879 150.28 154.054 163.506 168.23199 172.05701 181.45799 190.85899 195.636 200.41299 209.814"
             y="0"
             sodipodi:role="line"
             id="tspan342">Any HTML forms pointing to </tspan></text></g></g><g
       id="g346"><g
         id="g348"
         clip-path="url(#clipPath352)"><text
           transform="matrix(1,0,0,-1,680.5,245.45)"
           style="font-variant:normal;font-weight:normal;font-size:17.025px;font-family:Arial;-inkscape-font-specification:ArialMT;writing-mode:lr-tb;fill:#ffffff;fill-opacity:1;fill-rule:nonzero;stroke:none"
           id="text356"><tspan
             x="0 11.355675 24.601126 35.956799 44.605499 49.389526 53.781975 65.13765 77.429703 85.97625 90.760277 95.357025 104.75482 110.35605 115.14008 127.347 138.70268 148.16858 159.52425 169.92653 181.33328 186.11729 195.51511 204.0957 212.6763 222.0741 231.47189 236.25592"
             y="0"
             sodipodi:role="line"
             id="tspan354">POST, PUT, or DELETE except </tspan></text></g></g><g
       id="g358"><g
         id="g360"
         clip-path="url(#clipPath364)"><text
           transform="matrix(1,0,0,-1,680.5,227.83)"
           style="font-variant:normal;font-weight:normal;font-size:17px;font-family:Arial;-inkscape-font-specification:ArialMT;writing-mode:lr-tb;fill:#ffffff;fill-opacity:1;fill-rule:nonzero;stroke:none"
           id="text368"><tspan
             x="0 13.226 24.565001 34.595001 39.372002 44.965 54.366001 63.766998 68.543999 77.945 86.529999 91.306999 96.084 105.485 114.886 119.663 124.27 133.67101 139.26401 148.66499 153.646 163.047 172.448 177.22501 180.99899 190.451 199.81799 209.21899 213.996 217.77 227.222"
             y="0"
             sodipodi:role="line"
             id="tspan366">GET routes that are defined in </tspan></text></g></g><g
       id="g370"><g
         id="g372"
         clip-path="url(#clipPath376)"><text
           transform="matrix(1,0,0,-1,680.5,210.23)"
           style="font-variant:normal;font-weight:normal;font-size:17px;font-family:Arial;-inkscape-font-specification:ArialMT;writing-mode:lr-tb;fill:#ffffff;fill-opacity:1;fill-rule:nonzero;stroke:none"
           id="text380"><tspan
             x="0 4.777 14.178 23.579 28.356001 40.562 49.963001 59.363998 64.140999 69.734001 79.135002 88.536003 93.313004 102.714 111.299 116.076 120.853 124.627 128.435 137.836 142.61301 151.198 160.599 170 179.401 183.175 192.627"
             y="0"
             sodipodi:role="line"
             id="tspan378">the web routes file should </tspan></text></g></g><g
       id="g382"><g
         id="g384"
         clip-path="url(#clipPath388)"><text
           transform="matrix(1,0,0,-1,680.5,192.63)"
           style="font-variant:normal;font-weight:normal;font-size:17px;font-family:Arial;-inkscape-font-specification:ArialMT;writing-mode:lr-tb;fill:#ffffff;fill-opacity:1;fill-rule:nonzero;stroke:none"
           id="text392"><tspan
             x="0 3.7739999 13.226 21.777 25.551001 35.002998 44.369999 53.771 58.548 67.948997 72.725998 84.931999 96.321999 108.528 118.915 123.709 128.48599 137.88699 146.67599 156.077 165.478 169.881 174.658 178.43201 187.884 191.658"
             y="0"
             sodipodi:role="line"
             id="tspan390">include a CSRF token field</tspan></text></g></g></g></svg>
