<?xml version="1.0" encoding="UTF-8" standalone="no"?>
<svg
   xmlns:dc="http://purl.org/dc/elements/1.1/"
   xmlns:cc="http://creativecommons.org/ns#"
   xmlns:rdf="http://www.w3.org/1999/02/22-rdf-syntax-ns#"
   xmlns:svg="http://www.w3.org/2000/svg"
   xmlns="http://www.w3.org/2000/svg"
   xmlns:sodipodi="http://sodipodi.sourceforge.net/DTD/sodipodi-0.dtd"
   xmlns:inkscape="http://www.inkscape.org/namespaces/inkscape"
   version="1.1"
   id="svg2"
   xml:space="preserve"
   width="937.33331"
   height="398.93332"
   viewBox="0 0 937.33331 398.93332"
   sodipodi:docname="86.svg"
   inkscape:version="1.0.1 (3bc2e813f5, 2020-09-07)"><metadata
     id="metadata8"><rdf:RDF><cc:Work
         rdf:about=""><dc:format>image/svg+xml</dc:format><dc:type
           rdf:resource="http://purl.org/dc/dcmitype/StillImage" /><dc:title></dc:title></cc:Work></rdf:RDF></metadata><defs
     id="defs6"><clipPath
       clipPathUnits="userSpaceOnUse"
       id="clipPath18"><path
         d="M 0,1.2207e-4 H 960 V 540.00012 H 0 Z"
         clip-rule="evenodd"
         id="path16" /></clipPath><clipPath
       clipPathUnits="userSpaceOnUse"
       id="clipPath28"><path
         d="M 1.4305e-5,0 H 960.00001 V 540 H 1.4305e-5 Z"
         clip-rule="evenodd"
         id="path26" /></clipPath><clipPath
       clipPathUnits="userSpaceOnUse"
       id="clipPath40"><path
         d="M 1.4305e-5,0 H 960.00001 V 540 H 1.4305e-5 Z"
         clip-rule="evenodd"
         id="path38" /></clipPath><clipPath
       clipPathUnits="userSpaceOnUse"
       id="clipPath52"><path
         d="M 1.4305e-5,0 H 960.00001 V 540 H 1.4305e-5 Z"
         clip-rule="evenodd"
         id="path50" /></clipPath><clipPath
       clipPathUnits="userSpaceOnUse"
       id="clipPath68"><path
         d="M 1.4305e-5,0 H 960.00001 V 540 H 1.4305e-5 Z"
         clip-rule="evenodd"
         id="path66" /></clipPath><clipPath
       clipPathUnits="userSpaceOnUse"
       id="clipPath80"><path
         d="M 1.4305e-5,0 H 960.00001 V 540 H 1.4305e-5 Z"
         clip-rule="evenodd"
         id="path78" /></clipPath><clipPath
       clipPathUnits="userSpaceOnUse"
       id="clipPath92"><path
         d="M 1.4305e-5,0 H 960.00001 V 540 H 1.4305e-5 Z"
         clip-rule="evenodd"
         id="path90" /></clipPath><clipPath
       clipPathUnits="userSpaceOnUse"
       id="clipPath104"><path
         d="M 1.4305e-5,0 H 960.00001 V 540 H 1.4305e-5 Z"
         clip-rule="evenodd"
         id="path102" /></clipPath><clipPath
       clipPathUnits="userSpaceOnUse"
       id="clipPath116"><path
         d="M 1.4305e-5,0 H 960.00001 V 540 H 1.4305e-5 Z"
         clip-rule="evenodd"
         id="path114" /></clipPath><clipPath
       clipPathUnits="userSpaceOnUse"
       id="clipPath128"><path
         d="m 376.9,354.2 c 27.34,0 49.5,-22.21 49.5,-49.6 0,-27.39 -22.16,-49.6 -49.5,-49.6 -27.34,0 -49.5,22.21 -49.5,49.6 0,27.39 22.16,49.6 49.5,49.6 z"
         clip-rule="evenodd"
         id="path126" /></clipPath><clipPath
       clipPathUnits="userSpaceOnUse"
       id="clipPath138"><path
         d="M 0,0 H 19.388 V 19.395 H 0 Z"
         id="path136" /></clipPath><clipPath
       clipPathUnits="userSpaceOnUse"
       id="clipPath158"><path
         d="M 1.4305e-5,0 H 960.00001 V 540 H 1.4305e-5 Z"
         clip-rule="evenodd"
         id="path156" /></clipPath><clipPath
       clipPathUnits="userSpaceOnUse"
       id="clipPath170"><path
         d="M 1.4305e-5,0 H 960.00001 V 540 H 1.4305e-5 Z"
         clip-rule="evenodd"
         id="path168" /></clipPath><clipPath
       clipPathUnits="userSpaceOnUse"
       id="clipPath182"><path
         d="M 1.4305e-5,0 H 960.00001 V 540 H 1.4305e-5 Z"
         clip-rule="evenodd"
         id="path180" /></clipPath><clipPath
       clipPathUnits="userSpaceOnUse"
       id="clipPath194"><path
         d="m 732.8,354.2 c 27.39,0 49.6,-22.21 49.6,-49.6 0,-27.39 -22.21,-49.6 -49.6,-49.6 -27.39,0 -49.6,22.21 -49.6,49.6 0,27.39 22.21,49.6 49.6,49.6 z"
         clip-rule="evenodd"
         id="path192" /></clipPath><clipPath
       clipPathUnits="userSpaceOnUse"
       id="clipPath204"><path
         d="M 0,0 H 19.388 V 19.395 H 0 Z"
         id="path202" /></clipPath></defs><sodipodi:namedview
     pagecolor="#ffffff"
     bordercolor="#666666"
     borderopacity="1"
     objecttolerance="10"
     gridtolerance="10"
     guidetolerance="10"
     inkscape:pageopacity="0"
     inkscape:pageshadow="2"
     inkscape:window-width="1839"
     inkscape:window-height="1051"
     id="namedview4"
     showgrid="false"
     inkscape:zoom="1.034375"
     inkscape:cx="368.80001"
     inkscape:cy="137.06665"
     inkscape:window-x="-9"
     inkscape:window-y="-9"
     inkscape:window-maximized="1"
     inkscape:current-layer="g10" /><g
     id="g10"
     inkscape:groupmode="layer"
     inkscape:label="86"
     transform="matrix(1.3333333,0,0,-1.3333333,-271.19999,497.06665)"><g
       id="g22"><g
         id="g24"
         clip-path="url(#clipPath28)"><text
           transform="matrix(1,0,0,-1,60.55,453.38)"
           style="font-variant:normal;font-weight:normal;font-size:36.025px;font-family:'Trebuchet MS';-inkscape-font-specification:TrebuchetMS;writing-mode:lr-tb;fill:#90c226;fill-opacity:1;fill-rule:nonzero;stroke:none"
           id="text32"><tspan
             x="0 25.541725 43.302052 54.145576 68.159302 87.504723 98.132103 117.76572 128.60925 147.52237 167.19203 187.25795 198.10147 212.00713 231.64075 246.23088 266.29681 285.64221 305.31189 319.90201 330.02502 350.09094 360.21399 370.84134 381.10849 395.23029"
             y="0"
             sodipodi:role="line"
             id="tspan30">My role and responsibility</tspan></text></g></g><g
       id="g34"><g
         id="g36"
         clip-path="url(#clipPath40)"><text
           transform="matrix(1,0,0,-1,484.83,453.38)"
           style="font-variant:normal;font-weight:normal;font-size:36.025px;font-family:'Trebuchet MS';-inkscape-font-specification:TrebuchetMS;writing-mode:lr-tb;fill:#90c226;fill-opacity:1;fill-rule:nonzero;stroke:none"
           id="text44"><tspan
             x="0 10.267125 29.828699 40.672226 59.58535"
             y="0"
             sodipodi:role="line"
             id="tspan42">in a </tspan></text></g></g><g
       id="g46"><g
         id="g48"
         clip-path="url(#clipPath52)"><text
           transform="matrix(1,0,0,-1,555.25,453.38)"
           style="font-variant:normal;font-weight:normal;font-size:36.025px;font-family:'Trebuchet MS';-inkscape-font-specification:TrebuchetMS;writing-mode:lr-tb;fill:#90c226;fill-opacity:1;fill-rule:nonzero;stroke:none"
           id="text56"><tspan
             x="0 14.2659 33.899525 52.812649"
             y="0"
             sodipodi:role="line"
             id="tspan54">team</tspan></text></g></g><path
       d="m 204.2,342.24 c 0,16.44 13.32,29.76 29.76,29.76 h 285.88 c 16.44,0 29.76,-13.32 29.76,-29.76 V 104.16 C 549.6,87.724 536.28,74.4 519.84,74.4 H 233.96 c -16.44,0 -29.76,13.324 -29.76,29.76 z"
       style="fill:#54a021;fill-opacity:1;fill-rule:evenodd;stroke:none"
       id="path58" /><path
       d="m 204.2,342.24 c 0,16.44 13.32,29.76 29.76,29.76 h 285.88 c 16.44,0 29.76,-13.32 29.76,-29.76 V 104.16 C 549.6,87.724 536.28,74.4 519.84,74.4 H 233.96 c -16.44,0 -29.76,13.324 -29.76,29.76 z"
       style="fill:none;stroke:#ffffff;stroke-width:1.6;stroke-linecap:round;stroke-linejoin:round;stroke-miterlimit:10;stroke-dasharray:none;stroke-opacity:1"
       id="path60" /><g
       id="g62"><g
         id="g64"
         clip-path="url(#clipPath68)"><text
           transform="matrix(1,0,0,-1,295.1,215.55)"
           style="font-variant:normal;font-weight:normal;font-size:27px;font-family:'Trebuchet MS';-inkscape-font-specification:TrebuchetMS;writing-mode:lr-tb;fill:#ffffff;fill-opacity:1;fill-rule:nonzero;stroke:none"
           id="text72"><tspan
             x="0 15.066 34.209"
             y="0"
             sodipodi:role="line"
             id="tspan70">PMO</tspan></text></g></g><g
       id="g74"><g
         id="g76"
         clip-path="url(#clipPath80)"><text
           transform="matrix(1,0,0,-1,295.1,181.35)"
           style="font-variant:normal;font-weight:normal;font-size:21px;font-family:'Trebuchet MS';-inkscape-font-specification:TrebuchetMS;writing-mode:lr-tb;fill:#ffffff;fill-opacity:1;fill-rule:nonzero;stroke:none"
           id="text84"><tspan
             x="0"
             y="0"
             id="tspan82">•</tspan></text></g></g><g
       id="g86"><g
         id="g88"
         clip-path="url(#clipPath92)"><text
           transform="matrix(1,0,0,-1,313.13,181.35)"
           style="font-variant:normal;font-weight:normal;font-size:21px;font-family:'Trebuchet MS';-inkscape-font-specification:TrebuchetMS;writing-mode:lr-tb;fill:#ffffff;fill-opacity:1;fill-rule:nonzero;stroke:none"
           id="text96"><tspan
             x="0 14.805 25.83 37.212002 48.237 58.778999 70.223999 76.796997 88.389 96.557999 107.835 115.542 126.987 137.382"
             y="0"
             sodipodi:role="line"
             id="tspan94">Manage project</tspan></text></g></g><g
       id="g98"><g
         id="g100"
         clip-path="url(#clipPath104)"><text
           transform="matrix(1,0,0,-1,295.1,155.72)"
           style="font-variant:normal;font-weight:normal;font-size:21px;font-family:'Trebuchet MS';-inkscape-font-specification:TrebuchetMS;writing-mode:lr-tb;fill:#ffffff;fill-opacity:1;fill-rule:nonzero;stroke:none"
           id="text108"><tspan
             x="0"
             y="0"
             id="tspan106">•</tspan></text></g></g><g
       id="g110"><g
         id="g112"
         clip-path="url(#clipPath116)"><text
           transform="matrix(1,0,0,-1,313.13,155.72)"
           style="font-variant:normal;font-weight:normal;font-size:21px;font-family:'Trebuchet MS';-inkscape-font-specification:TrebuchetMS;writing-mode:lr-tb;fill:#ffffff;fill-opacity:1;fill-rule:nonzero;stroke:none"
           id="text120"><tspan
             x="0 12.81 24.003 34.397999 45.863998 63.209999 74.654999 86.015999 94.394997 105.42 113.736 119.784 130.97701"
             y="0"
             sodipodi:role="line"
             id="tspan118">Documentation</tspan></text></g></g><g
       id="g122"><g
         id="g124"
         clip-path="url(#clipPath128)"><g
           id="g130"
           transform="matrix(1.375,-3.77e-7,-3.77e-7,1.3778,327.4,255)"><g
             id="g132"
             transform="scale(3.7136,3.7122)"><g
               id="g134"
               clip-path="url(#clipPath138)"><path
                 d="m 9.5334,15.342 c -0.46,0 -0.84,-0.38 -0.84,-0.84 0,-0.46 0.38,-0.84 0.84,-0.84 0.46,0 0.8396,0.38 0.8396,0.84 0,0.46 -0.3796,0.84 -0.8396,0.84 z"
                 style="fill:#000000;fill-opacity:1;fill-rule:nonzero;stroke:none"
                 id="path140" /><path
                 d="m 7.8534,10.442 c 0,-0.4641 -0.3761,-0.8402 -0.84,-0.8402 -0.4639,0 -0.84,0.3761 -0.84,0.8402 0,0.464 0.3761,0.84 0.84,0.84 0.4639,0 0.84,-0.376 0.84,-0.84 z"
                 style="fill:#000000;fill-opacity:1;fill-rule:nonzero;stroke:none"
                 id="path142" /><path
                 d="m 11.913,14.222 -0.5,-0.24 c -0.04,-0.16 -0.12,-0.3 -0.2,-0.44 l 0.18,-0.52 -0.4,-0.4 -0.52,0.18 c -0.14,-0.08 -0.28,-0.14 -0.44,-0.18 l -0.2396,-0.48 h -0.56 l -0.24,0.5 c -0.16,0.04 -0.3,0.1 -0.44,0.18 l -0.52,-0.18 -0.4,0.4 0.18,0.52 c -0.08,0.14 -0.14,0.28 -0.18,0.44 l -0.5,0.24 v 0.56 l 0.5,0.24 c 0.04,0.16 0.1,0.3 0.18,0.44 l -0.16,0.52 0.4,0.4 0.52,-0.18 c 0.14,0.08 0.28,0.14 0.44,0.18 l 0.24,0.5 h 0.56 l 0.2396,-0.48 c 0.16,-0.04 0.3,-0.1 0.44,-0.18 l 0.52,0.18 0.4,-0.4 -0.18,-0.52 c 0.08,-0.14 0.14,-0.28 0.18,-0.44 l 0.5,-0.24 z m -2.5196,-4.06 -0.5,-0.2402 c -0.04,-0.16 -0.1,-0.3 -0.18,-0.44 l 0.16,-0.52 -0.4,-0.4 -0.52,0.18 c -0.14,-0.08 -0.28,-0.14 -0.44,-0.18 l -0.22,-0.48 h -0.56 l -0.24,0.5 c -0.16,0.04 -0.3,0.1 -0.44,0.18 l -0.52,-0.16 -0.4,0.4 0.18,0.52 c -0.08,0.14 -0.14,0.28 -0.18,0.44 l -0.5,0.2402 v 0.56 l 0.5,0.24 c 0.04,0.16 0.1,0.3 0.18,0.44 l -0.18,0.52 0.4,0.4 0.52,-0.18 c 0.14,0.08 0.28,0.14 0.44,0.18 l 0.24,0.5 h 0.58 l 0.24,-0.5 c 0.16,-0.04 0.3,-0.1 0.44,-0.18 l 0.52,0.18 0.4,-0.4 -0.18,-0.52 c 0.08,-0.14 0.14,-0.28 0.18,-0.44 l 0.5,-0.24 z m 6.9196,-0.7402 -1.38,2.4002 v 0.1 c 0.08,2.2 -1.04,4.26 -2.94,5.4 -1.9,1.12 -4.2396,1.12 -6.1396,0 -1.9,-1.12 -3.02,-3.2 -2.94,-5.4 0,-1.9 0.86,-3.6802 2.36,-4.8402 v -5.06 h 6.3196 v 2.4 h 0.98 c 0.64,0 1.24,0.26 1.68,0.7 0.44,0.46 0.68,1.06 0.68,1.7 v 1.2 h 0.88 c 0.52,0.06 0.98,0.66 0.5,1.4 z"
                 style="fill:#000000;fill-opacity:1;fill-rule:nonzero;stroke:none"
                 id="path144" /></g></g></g></g></g><path
       d="m 327.4,304.6 c 0,27.39 22.16,49.6 49.5,49.6 27.34,0 49.5,-22.21 49.5,-49.6 0,-27.39 -22.16,-49.6 -49.5,-49.6 -27.34,0 -49.5,22.21 -49.5,49.6 z"
       style="fill:none;stroke:#ffffff;stroke-width:1.6;stroke-linecap:round;stroke-linejoin:round;stroke-miterlimit:10;stroke-dasharray:none;stroke-opacity:1"
       id="path146" /><path
       d="m 560,342.24 c 0,16.44 13.32,29.76 29.76,29.76 h 286.08 c 16.44,0 29.76,-13.32 29.76,-29.76 V 104.16 C 905.6,87.724 892.28,74.4 875.84,74.4 H 589.76 C 573.32,74.4 560,87.724 560,104.16 Z"
       style="fill:#e6b91e;fill-opacity:1;fill-rule:evenodd;stroke:none"
       id="path148" /><path
       d="m 560,342.24 c 0,16.44 13.32,29.76 29.76,29.76 h 286.08 c 16.44,0 29.76,-13.32 29.76,-29.76 V 104.16 C 905.6,87.724 892.28,74.4 875.84,74.4 H 589.76 C 573.32,74.4 560,87.724 560,104.16 Z"
       style="fill:none;stroke:#ffffff;stroke-width:1.6;stroke-linecap:round;stroke-linejoin:round;stroke-miterlimit:10;stroke-dasharray:none;stroke-opacity:1"
       id="path150" /><g
       id="g152"><g
         id="g154"
         clip-path="url(#clipPath158)"><text
           transform="matrix(1,0,0,-1,640,215.55)"
           style="font-variant:normal;font-weight:normal;font-size:27px;font-family:'Trebuchet MS';-inkscape-font-specification:TrebuchetMS;writing-mode:lr-tb;fill:#ffffff;fill-opacity:1;fill-rule:nonzero;stroke:none"
           id="text162"><tspan
             x="0 16.551001 31.374001 44.604 59.319 67.337997 81.728996 96.767998 111.483"
             y="0"
             sodipodi:role="line"
             id="tspan160">Developer</tspan></text></g></g><g
       id="g164"><g
         id="g166"
         clip-path="url(#clipPath170)"><text
           transform="matrix(1,0,0,-1,640,181.35)"
           style="font-variant:normal;font-weight:normal;font-size:21px;font-family:'Trebuchet MS';-inkscape-font-specification:TrebuchetMS;writing-mode:lr-tb;fill:#ffffff;fill-opacity:1;fill-rule:nonzero;stroke:none"
           id="text174"><tspan
             x="0"
             y="0"
             id="tspan172">•</tspan></text></g></g><g
       id="g176"><g
         id="g178"
         clip-path="url(#clipPath182)"><text
           transform="matrix(1,0,0,-1,658,181.35)"
           style="font-variant:normal;font-weight:normal;font-size:21px;font-family:'Trebuchet MS';-inkscape-font-specification:TrebuchetMS;writing-mode:lr-tb;fill:#ffffff;fill-opacity:1;fill-rule:nonzero;stroke:none"
           id="text186"><tspan
             x="0 14.805 25.997999 34.167 45.612 52.185001 63.377998 74.780998 81.165001 89.543999 100.989 111.384 122.745 134.14799 140.133 150.528 161.55299"
             y="0"
             sodipodi:role="line"
             id="tspan184">More on technical</tspan></text></g></g><g
       id="g188"><g
         id="g190"
         clip-path="url(#clipPath194)"><g
           id="g196"
           transform="matrix(1.3778,-3.77e-7,-7.54e-7,1.3778,683.2,255)"><g
             id="g198"
             transform="scale(3.7136,3.7122)"><g
               id="g200"
               clip-path="url(#clipPath204)"><path
                 d="m 11.973,11.822 c -0.84,0 -1.5,0.68 -1.5,1.5 0,0.82 0.68,1.5 1.5,1.5 0.84,0 1.5,-0.68 1.5,-1.5 0,-0.82 -0.68,-1.5 -1.5,-1.5 z m 3.38,2.44 c -0.08,0.28 -0.18,0.54 -0.32,0.78 l 0.32,0.94 -0.72,0.72 -0.94,-0.32 c -0.24,0.14 -0.5,0.24 -0.78,0.32 l -0.44,0.88 h -1 l -0.44,-0.88 c -0.28,-0.08 -0.54,-0.18 -0.78,-0.32 l -0.9396,0.32 -0.72,-0.72 0.32,-0.94 c -0.14,-0.24 -0.24,-0.5 -0.32,-0.78 l -0.88,-0.44 v -1 l 0.88,-0.44 c 0.08,-0.28 0.18,-0.54 0.32,-0.78 l -0.32,-0.94 0.7,-0.7002 0.9396,0.3202 c 0.24,-0.14 0.5,-0.24 0.78,-0.3202 l 0.44,-0.88 h 1 l 0.44,0.88 c 0.28,0.0802 0.54,0.1802 0.78,0.3202 l 0.94,-0.3202 0.72,0.7002 -0.32,0.94 c 0.14,0.24 0.26,0.52 0.34,0.78 l 0.88,0.44 v 1 z"
                 style="fill:#000000;fill-opacity:1;fill-rule:nonzero;stroke:none"
                 id="path206" /><path
                 d="m 7.4534,4.5418 c -0.84,0 -1.5,0.68 -1.5,1.5 0,0.84 0.68,1.5 1.5,1.5 0.84,0 1.5,-0.68 1.5,-1.5 0,-0.82 -0.66,-1.5 -1.5,-1.5 z m 3.0596,3.22 0.32,0.94 -0.72,0.72 -0.9396,-0.32 c -0.24,0.14 -0.52,0.24 -0.78,0.32 l -0.44,0.8802 h -1 l -0.44,-0.8802 c -0.28,-0.08 -0.54,-0.18 -0.78,-0.32 l -0.94,0.32 -0.7,-0.7 0.3,-0.94 c -0.14,-0.24 -0.24,-0.52 -0.32,-0.78 l -0.88,-0.44 v -1 l 0.88,-0.44 c 0.08,-0.28 0.18,-0.54 0.32,-0.78 l -0.3,-0.94 0.7,-0.7 0.94,0.3 c 0.24,-0.14 0.5,-0.24 0.78,-0.32 l 0.44,-0.88 h 1 l 0.44,0.88 c 0.28,0.08 0.54,0.18 0.78,0.32 l 0.9396,-0.32 0.7,0.72 -0.3,0.92 c 0.14,0.24 0.24,0.5 0.32,0.78 l 0.88,0.44 v 1 l -0.88,0.44 c -0.08,0.28 -0.18,0.54 -0.32,0.78 z"
                 style="fill:#000000;fill-opacity:1;fill-rule:nonzero;stroke:none"
                 id="path208" /></g></g></g></g></g><path
       d="m 683.2,304.6 c 0,27.39 22.21,49.6 49.6,49.6 27.39,0 49.6,-22.21 49.6,-49.6 0,-27.39 -22.21,-49.6 -49.6,-49.6 -27.39,0 -49.6,22.21 -49.6,49.6 z"
       style="fill:none;stroke:#ffffff;stroke-width:1.6;stroke-linecap:round;stroke-linejoin:round;stroke-miterlimit:10;stroke-dasharray:none;stroke-opacity:1"
       id="path210" /><path
       d="M 232,111.7 254.3,134 V 122.85 H 855.5 V 134 l 22.3,-22.3 -22.3,-22.3 v 11.15 H 254.3 V 89.4 Z"
       style="fill:#d1dfcc;fill-opacity:1;fill-rule:evenodd;stroke:none"
       id="path212" /><path
       d="M 232,111.7 254.3,134 V 122.85 H 855.5 V 134 l 22.3,-22.3 -22.3,-22.3 v 11.15 H 254.3 V 89.4 Z"
       style="fill:none;stroke:#ffffff;stroke-width:1.6;stroke-linecap:round;stroke-linejoin:round;stroke-miterlimit:10;stroke-dasharray:none;stroke-opacity:1"
       id="path214" /></g></svg>
